{
    "name": "starfinder-statblock-parser",
    "title": "Starfinder Statblock Parser",
    "description": "A module to convert Starfinder NPC stat blocks into Actors",
    "version": "0.1.2",
    "author": "Deepflame",
    "systems": ["starfinder"],
    "esmodules": ["./module/main.js", "./module/text-input.js"],
    "styles": [],
    "packs": [],
    "url": "https://gitlab.com/TimToxopeus/starfinder-statblock-parser",
    "manifest": "https://gitlab.com/TimToxopeus/starfinder-statblock-parser/-/raw/master/module.json",
    "download": "https://gitlab.com/TimToxopeus/starfinder-statblock-parser/-/archive/master/starfinder-statblock-parser-master.zip",
    "minimumCoreVersion": "0.6.4",
    "compatibleCoreVersion": "0.6.4"
}